{
    "pagetitle": "Life",
    "custombar": true,
    "favorites": false,
    "favoritesInfo": [],
    "search": false,
    "notifications": false,
    "variants": false,
    "profile": true,
    "profileInfo": [
        {
            "code": "Signout",
            "name": "Dashboard",
            "url": "/apppath/dashboard",
            "items": []
        },
        {
            "code": "Signout",
            "name": "Team Report",
            "url": "/apppath/team",
            "items": []
        },
        {
            "code": "Signout",
            "name": "Capture",
            "url": "/apppath/form",
            "items": []
        },
        {
            "code": "Signout",
            "name": "My ScratchPad",
            "url": "/apppath/myscratchpad",
            "items": []
        },
        {
            "code": "Signout",
            "name": "Team ScratchPad",
            "url": "/apppath/teammyscratchpad",
            "items": []
        },
        {
            "code": "Signout",
            "name": "Signout",
            "url": "/logout",
            "items": []
        }
    ],
    "variantsInfo": [],
    "navigation": []
}