{
    "notificationPanelConfig": {
        "header": {
            "title": "Notifications",
            "actions": {
                "type": "droptoogle",
                "icon": "fa fa-chevron-down fa-1x",
                "dropItems": [{
                        "value": "all",
                        "displaylabel": "All"
                    },
                    {
                        "value": "Read",
                        "displaylabel": "Read"
                    },
                     {
                        "value": "Unread",
                        "displaylabel": "Unread"
                    }
                ]
            }
        },
        "body": {
            "notifications": [{
                    "type": "comment",
                    "title": "Apex “OCD illogicals” sent for supervisory review",
                    "imageUrl": "fa fa-check-square-o fa-fw icon-green",
                    "time": "7:30 AM",
                    "description": "New Comment",
                    "status": "View changes"
                },
                {
                    "type": "comment",
                    "title": "APEX “DTC Stock record” approaching deadline. ",
                    "imageUrl": "fa fa-laptop fa-fw icon-blue",
                    "time": "8:01 AM",
                    "description": "12 minutes ago",
                    "status": "View changes"
                },
                {
                    "type": "comment",
                    "title": "P&S re-assigned Questrade Illogical breaks",
                    "imageUrl": "fa fa-check-square-o fa-fw icon-green",
                    "time": "8:19 AM",
                    "description": "Message Sent",
                    "status": "View changes"
                },
                {
                    "type": "comment",
                    "title": "REOR has rejected the Apex illogical records",
                    "imageUrl": "fa fa-laptop fa-fw icon-blue",
                    "time": "8:36 AM",
                    "description": " Server Rebooted",
                    "status": "View changes"
                },
                {
                    "type": "comment",
                    "title": "QT Firm OOB report is assigned to you",
                    "imageUrl": "fa fa-check-square-o fa-fw icon-green",
                    "time": "2:00 PM",
                    "description": "12 minutes ago",
                    "status": "View changes"
                },
                {
                    "type": "comment",
                    "title": "QT “Weekly recon report” item # 4 has been re-assigned by Chris.",
                    "imageUrl": "fa fa-laptop fa-fw icon-blue",
                    "time": "3:15 PM",
                    "description": "New Comment",
                    "status": "View changes"
                },
                {
                    "type": "comment",
                    "title": "Bloomberg “illogicals” reviewed and released",
                    "imageUrl": "fa fa-check-square-o fa-fw icon-green",
                    "time": "3:58 PM",
                    "description": "12 minutes ago",
                    "status": "View changes"
                }
            ]
        },
        "footer": {
            "title": "Show all",
            "icon": ""
        }
    }
}